//Anfang Kommentar 1
/*
	$zeiger4 = @mysql_query("SELECT * FROM $skrupel_schiffe where besitzer=$spieler and status>0 and spiel=$spiel and flug=4 and ordner=$oid and zielid=$shid order by name");
	$schiffanzahl4 = @mysql_num_rows($zeiger4);

	if ($schiffanzahl4>=1) {

    for  ($i4=0; $i4<$schiffanzahl4;$i4++) {
    $ok4 = @mysql_data_seek($zeiger4,$i4);

	$array4 = @mysql_fetch_array($zeiger4);
    $shid4=$array4["id"];
	$name4=$array4["name"];
	$klasse4=$array4["klasse"];
	$antrieb4=$array4["antrieb"];
	$klasseid4=$array4["klasseid"];
	$kox4=$array4["kox"];
	$koy4=$array4["koy"];
	$flug4=$array4["flug"];
	$zielx4=$array4["zielx"];
	$ziely4=$array4["ziely"];
	$zielid4=$array4["zielid"];
	$volk4=$array4["volk"];
	$erfahrung4=$array["erfahrung4"];

	$crew4=$array4["crew"];
	$crewmax4=$array4["crewmax"];
	$lemin4=$array4["lemin"];
	$leminmax4=$array4["leminmax"];
	$schaden4=$array4["schaden"];
	$routing_status4=$array4["routing_status"];
	$logbuch4=$array4["logbuch"];
	$bild4=$array4["bild_gross"];
	$tarnfeld4=$array4["tarnfeld"];

	$fracht_leute4=$array4["fracht_leute"];
	$fracht_cantox4=$array4["fracht_cantox"];
	$fracht_vorrat4=$array4["fracht_vorrat"];
	$fracht_min14=$array4["fracht_min1"];
	$fracht_min24=$array4["fracht_min2"];
	$fracht_min34=$array4["fracht_min3"];


	$tip4="[$name4]";
	$tip4=$tip4."\n";
	$tip4=$tip4."\n".$lang['flotte']['kol'].": ".$fracht_leute4." ".$lang['flotte']['cx'].": ".$fracht_cantox4." ".$lang['flotte']['vor'].": ".$fracht_vorrat4;
	$tip4=$tip4."\n".$lang['flotte']['bax'].": ".$fracht_min14." ".$lang['flotte']['ren'].": ".$fracht_min24." ".$lang['flotte']['vom'].": ".$fracht_min34;

    if (strlen($logbuch4)>=1) {
      $tip4=$tip4."\n";
      $tip4=$tip4."\n$logbuch4";
    }

	if ($tarnfeld4>=1) { ?>
	<td><table border="0" cellspacing="0" cellpadding="0">
	<tr>
    <td background="<?php echo $bildpfad?>/aufbau/tarnrand.gif" colspan="3"><img src="../bilder/empty.gif" border="0" width="1" height="1"></td>
	</tr>
	<tr>
    <td background="<?php echo $bildpfad?>/aufbau/tarnrand.gif"><img src="../bilder/empty.gif" border="0" width="1" height="1"></td>
     <td bgcolor="#000000"><a href="flotte.php?fu=2&shid=<?php echo $shid4?>&oid=<?php echo $oid?>&uid=<?php echo $uid?>&sid=<?php echo $sid?>"><img src="../daten/<?php echo $volk4?>/bilder_schiffe/<?php echo $bild4?>" border="0"  height="80" title="<?php echo $tip?>" style="filter:alpha(opacity=50);" onmouseover="this.style.filter='alpha(opacity=100)';" onmouseout="this.style.filter='alpha(opacity=50)';"></a></td>
    <td background="<?php echo $bildpfad?>/aufbau/tarnrand.gif"><img src="../bilder/empty.gif" border="0" width="1" height="1"></td>
	</tr>
	<tr>
    <td background="<?php echo $bildpfad?>/aufbau/tarnrand.gif" colspan="3"><img src="../bilder/empty.gif" border="0" width="1" height="1"></td>
	</tr>
	</table></td>
	<?php } else { ?>
	<td><table border="0" cellspacing="0" cellpadding="0">
	<tr>
		<td bgcolor="#aaaaaa" colspan="3"><img src="../bilder/empty.gif" border="0" width="1" height="1"></td>
	</tr>
	<tr>
		<td bgcolor="#aaaaaa"><img src="../bilder/empty.gif" border="0" width="1" height="1"></td>
     <td><a href="flotte.php?fu=2&shid=<?php echo $shid4?>&oid=<?php echo $oid?>&uid=<?php echo $uid?>&sid=<?php echo $sid?>"><img src="../daten/<?php echo $volk4?>/bilder_schiffe/<?php echo $bild4?>" border="0"  height="80" width="122" title="<?php echo $tip?>"></a></td>
		<td bgcolor="#aaaaaa"><img src="../bilder/empty.gif" border="0" width="1" height="1"></td>
	</tr>
	<tr>
		<td bgcolor="#aaaaaa" colspan="3"><img src="../bilder/empty.gif" border="0" width="1" height="1"></td>
	</tr>
	</table></td>
	<?php } ?>

		<td><table border="0" cellspacing="0" cellpadding="0">
		 <tr>
       <td bgcolor="#990000" valign="bottom"><img src="<?php echo $bildpfad?>/skalen/gruen_1.gif" border="0" width="10" height="<?php echo 82-($schaden4*0.82); ?>" title="Schaden <?php echo $schaden4?>%"></td>
			<td><img src="../bilder/empty.gif" border="0" width="1" height="82"></td>
         <td bgcolor="#990000" valign="bottom"><img src="<?php echo $bildpfad?>/skalen/hellblau_1.gif" border="0" width="10" height="<?php echo 82*$crew4/$crewmax4; ?>" title="Crew <?php echo $crew4?>/<?php echo $crewmax4?>"></td>
			<td><img src="../bilder/empty.gif" border="0" width="1" height="82"></td>
       <td bgcolor="#990000" valign="bottom"><img src="<?php echo $bildpfad?>/skalen/gold_1.gif" border="0" width="10" height="<?php echo 82*$lemin4/$leminmax4; ?>" title="Lemin <?php echo $lemin4?>/<?php echo $leminmax4?>"></td>
		<td><img src="../bilder/empty.gif" border="0" width="6" height="80"></td>
		<td><table border="0" cellspacing="0" cellpadding="0">
          <tr>
            <td><center><a href="javascript:;" onclick="movemap(<?php echo $kox.",".$koy;  ?>);"><?php if ($erfahrung4==0) { ?><img src="<?php echo $bildpfad?>/karte/farben/schiff_aktiv_<?php echo $spieler?>.gif" border="0" width="15" height="15"><?php } else { ?><img src="<?php echo $bildpfad?>/icons/erf_<?php echo $erfahrung4?>.gif" title="Erfahrungslevel <?php echo $erfahrung4?>" border="0" width="22" height="22"><?php } ?></a></center></td>
          </tr>
          <tr>
            <td><img src="../bilder/empty.gif" border="0" width="10" height="5"></td>
          </tr>
          <tr>
            <td><nobr><center><?php echo $name4?></center></nobr></td>
          </tr>
          <tr>
            <td><img src="../bilder/empty.gif" border="0" width="10" height="5"></td>
          </tr>
          <tr>
		<?php
			 $zeiger_temp = @mysql_query("SELECT id,name FROM $skrupel_schiffe where id=$zielid4");
			 $array_temp = @mysql_fetch_array($zeiger_temp);
			 $schiff_name=$array_temp["name"];
		?>
    <td style="color:#009900;"><nobr><center><?php echo $lang['flotte']['begleitschutz']?><br><?php echo $schiff_name?></center></nobr></td>
          </tr>
       </table>
	</td><td><img src="../bilder/empty.gif" border="0" width="6" height="80"></td></tr></table></td>


	<?php

	}}
*/Ende Kommentar 1